Reading and writing data files • Arrow R Package
…
The size of a Parquet file is typically much smaller than the
corresponding CSV file would have been. This is in part due to the use
of file compression: by default, Parquet files written with the arrow
package use Snappy
compression but other options such as gzip are also supported. See
help("write_parquet", package = "arrow") for more
information.

Having written the Parquet file, we now can read it with
read_parquet():

read_parquet(file_path)

## # A tibble: 87 x 14
##    name     height  mass hair_color skin_color eye_color birth_year sex   gender
##    <chr>     <int> <dbl> <chr>      <chr>      <chr>          <dbl> <chr> <chr> 
##  1 Luke Sk~    172    77 blond      fair       blue            19   male  mascu~
##  2 C-3PO       167    75 NA         gold       yellow         112   none  mascu~
##  3 R2-D2        96    32 NA         white, bl~ red             33   none  mascu~
##  4 Darth V~    202   136 none       white      yellow          41.9 male  mascu~
##  5 Leia Or~    150    49 brown      light      brown           19   fema~ femin~
##  6 Owen La~    178   120 brown, gr~ light      blue            52   male  mascu~
##  7 Beru Wh~    165    75 brown      light      blue            47   fema~ femin~
##  8 R5-D4        97    32 NA         white, red red             NA   none  mascu~
##  9 Biggs D~    183    84 black      light      brown           24   male  mascu~
## 10 Obi-Wan~    182    77 auburn, w~ fair       blue-gray       57   male  mascu~
## # i 77 more rows
## # i 5 more variables: homeworld <chr>, species <chr>, films <list<character>>,
## #   vehicles <list<character>>, starships <list<character>>
…
One useful feature of Parquet files is that they store data
column-wise, and contain metadata that allow file readers to skip to the
relevant sections of the file. That means it is possible to load only a
subset of the columns without reading the complete file. The
col_select argument to read_parquet() supports
this functionality:

read_parquet(file_path, col_select = c("name", "height", "mass"))

## # A tibble: 87 x 3
##    name               height  mass
##    <chr>               <int> <dbl>
##  1 Luke Skywalker        172    77
##  2 C-3PO                 167    75
##  3 R2-D2                  96    32
##  4 Darth Vader           202   136
##  5 Leia Organa           150    49
##  6 Owen Lars             178   120
##  7 Beru Whitesun Lars    165    75
##  8 R5-D4                  97    32
##  9 Biggs Darklighter     183    84
## 10 Obi-Wan Kenobi        182    77
## # i 77 more rows
…
The write_feather() function writes version 2
Arrow/Feather files by default, and supports multiple kinds of file
compression. Basic use is shown below:

file_path <- tempfile()
write_feather(starwars, file_path)

The read_feather() function provides a familiar
interface for reading feather files:

read_feather(file_path)

## # A tibble: 87 x 14
##    name     height  mass hair_color skin_color eye_color birth_year sex   gender
##    <chr>     <int> <dbl> <chr>      <chr>      <chr>          <dbl> <chr> <chr> 
##  1 Luke Sk~    172    77 blond      fair       blue            19   male  mascu~
##  2 C-3PO       167    75 NA         gold       yellow         112   none  mascu~
##  3 R2-D2        96    32 NA         white, bl~ red             33   none  mascu~
##  4 Darth V~    202   136 none       white      yellow          41.9 male  mascu~
##  5 Leia Or~    150    49 brown      light      brown           19   fema~ femin~
##  6 Owen La~    178   120 brown, gr~ light      blue            52   male  mascu~
##  7 Beru Wh~    165    75 brown      light      blue            47   fema~ femin~
##  8 R5-D4        97    32 NA         white, red red             NA   none  mascu~
##  9 Biggs D~    183    84 black      light      brown           24   male  mascu~
## 10 Obi-Wan~    182    77 auburn, w~ fair       blue-gray       57   male  mascu~
## # i 77 more rows
## # i 5 more variables: homeworld <chr>, species <chr>, films <list<character>>,
## #   vehicles <list<character>>, starships <list<character>>
…
A simple example of writing and reading a CSV file with arrow is
shown below:

file_path <- tempfile()
write_csv_arrow(mtcars, file_path)
read_csv_arrow(file_path, col_select = starts_with("d"))

## # A tibble: 32 x 2
##     disp  drat
##    <dbl> <dbl>
##  1  160   3.9 
##  2  160   3.9 
##  3  108   3.85
##  4  258   3.08
##  5  360   3.15
##  6  225   2.76
##  7  360   3.21
##  8  147.  3.69
##  9  141.  3.92
## 10  168.  3.92
## # i 22 more rows
…
