…
<div id="cb9" class="sourceCode">

``` r
sw |>
  group_by(species) |>
  summarize(mean_height = mean(height, na.rm = TRUE)) |>
  collect()
```

</div>

    ## # A tibble: 38 x 2
    ##    species        mean_height
    ##    <chr>                <dbl>
    ##  1 Human                 178 
    ##  2 Droid                 131.
    ##  3 Wookiee               231 
    ##  4 Rodian                173 
    ##  5 Hutt                  175 
    ##  6 NA                    175 
    ##  7 Yoda's species         66 
    ##  8 Trandoshan            190 
    ##  9 Mon Calamari          180 
    ## 10 Ewok                   88 
    ## # i 28 more rows
…
Once registered, the following works:

<div id="cb17" class="sourceCode">

``` r
sw |>
  mutate(name, snake_name = to_snake_name(name), .keep = "none") |>
  collect()
```

</div>

    ## # A tibble: 87 x 2
    ##    name               snake_name        
    ##    <chr>              <chr>             
    ##  1 Luke Skywalker     luke_skywalker    
    ##  2 C-3PO              c3po              
    ##  3 R2-D2              r2d2              
    ##  4 Darth Vader        darth_vader       
    ##  5 Leia Organa        leia_organa       
    ##  6 Owen Lars          owen_lars         
    ##  7 Beru Whitesun Lars beru_whitesun_lars
    ##  8 R5-D4              r5d4              
    ##  9 Biggs Darklighter  biggs_darklighter 
    ## 10 Obi-Wan Kenobi     obiwan_kenobi     
    ## # i 77 more rows
…
<div id="cb19" class="sourceCode">

``` r
sw |>
  filter(!is.na(height), !is.na(mass)) |>
  transmute(name, height, mass, res = residuals(lm(mass ~ height)))
```

</div>

    ## Warning: In residuals(lm(mass ~ height)): 
    ## i Expression not supported in Arrow
    ## > Pulling data into R

    ## # A tibble: 59 x 4
    ##    name               height  mass   res
    ##    <chr>               <int> <dbl> <dbl>
    ##  1 Luke Skywalker        172    77 -18.8
    ##  2 C-3PO                 167    75 -17.7
    ##  3 R2-D2                  96    32 -16.4
    ##  4 Darth Vader           202   136  21.4
    ##  5 Leia Organa           150    49 -33.1
    ##  6 Owen Lars             178   120  20.4
    ##  7 Beru Whitesun Lars    165    75 -16.5
    ##  8 R5-D4                  97    32 -17.0
    ##  9 Biggs Darklighter     183    84 -18.7
    ## 10 Obi-Wan Kenobi        182    77 -25.1
    ## # i 49 more rows
…
Calling `collect()` in the middle of the pipeline fixes the issue:

<div id="cb24" class="sourceCode">

``` r
sw2 |>
  filter(!is.na(height), !is.na(mass)) |>
  collect() |>
  transmute(name, height, mass, res = residuals(lm(mass ~ height)))
```

</div>

    ## # A tibble: 59 x 4
    ##    name               height  mass   res
    ##    <chr>               <int> <dbl> <dbl>
    ##  1 Luke Skywalker        172    77 -18.8
    ##  2 C-3PO                 167    75 -17.7
    ##  3 R2-D2                  96    32 -16.4
    ##  4 Darth Vader           202   136  21.4
    ##  5 Leia Organa           150    49 -33.1
    ##  6 Owen Lars             178   120  20.4
    ##  7 Beru Whitesun Lars    165    75 -16.5
    ##  8 R5-D4                  97    32 -17.0
    ##  9 Biggs Darklighter     183    84 -18.7
    ## 10 Obi-Wan Kenobi        182    77 -25.1
    ## # i 49 more rows
…
``` r
sw |>
  select(1:4) |>
  filter(!is.na(hair_color)) |>
  to_duckdb() |>
  group_by(hair_color) |>
  filter(height < mean(height, na.rm = TRUE)) |>
  to_arrow() |>
  # perform other arrow operations...
  collect()
```

</div>

    ## # A tibble: 28 x 4
    ##    name                    height  mass hair_color
    ##    <chr>                    <int> <dbl> <chr>     
    ##  1 "Leia Organa"              150    49 brown     
    ##  2 "Beru Whitesun Lars"       165    75 brown     
    ##  3 "Wedge Antilles"           170    77 brown     
    ##  4 "Wicket Systri Warrick"     88    20 brown     
    ##  5 "Cord\u00e9"               157    NA brown     
    ##  6 "Dorm\u00e9"               165    NA brown     
    ##  7 "R4-P17"                    96    NA none      
    ##  8 "Lobot"                    175    79 none      
    ##  9 "Ackbar"                   180    83 none      
    ## 10 "Nien Nunb"                160    68 none      
    ## # i 18 more rows
…
