Data analysis with dplyr syntax • Arrow R Package
…
The arrow package has broad support for single-table dplyr verbs, including those that compute aggregates. For example, it supports group_by() and summarize(), as well as commonly-used convenience functions such as count():

sw %>%
  group_by(species) %>%
  summarize(mean_height = mean(height, na.rm = TRUE)) %>%
  collect()

## # A tibble: 38 x 2
##    species        mean_height
##    <chr>                <dbl>
##  1 Human                 178 
##  2 Droid                 131.
##  3 Wookiee               231 
##  4 Rodian                173 
##  5 Hutt                  175 
##  6 NA                    175 
##  7 Yoda's species         66 
##  8 Trandoshan            190 
##  9 Mon Calamari          180 
## 10 Ewok                   88 
## # i 28 more rows
…
In this expression, the name argument specifies the name by which it will be recognized in the context of the arrow/dplyr pipeline and fun is the function itself. The in_type and out_type arguments are used to specify the expected data type for the input and output, and auto_convert specifies whether arrow should automatically convert any R inputs to their Arrow equivalents.

Once registered, the following works:

sw %>%
  mutate(name, snake_name = to_snake_name(name), .keep = "none") %>%
  collect()

## # A tibble: 87 x 2
##    name               snake_name        
##    <chr>              <chr>             
##  1 Luke Skywalker     luke_skywalker    
##  2 C-3PO              c3po              
##  3 R2-D2              r2d2              
##  4 Darth Vader        darth_vader       
##  5 Leia Organa        leia_organa       
##  6 Owen Lars          owen_lars         
##  7 Beru Whitesun Lars beru_whitesun_lars
##  8 R5-D4              r5d4              
##  9 Biggs Darklighter  biggs_darklighter 
## 10 Obi-Wan Kenobi     obiwan_kenobi     
## # i 77 more rows

To learn more, see help("register_scalar_function", package = "arrow").

Handling unsupported expressions

For dplyr queries on Table objects, which are held in memory and should usually be representable as data frames, if the arrow package detects an unimplemented function within a dplyr verb, it automatically calls collect() to return the data as an R data frame before processing that dplyr verb. As an example, neither lm() nor residuals() are implemented, so if we write code that computes the residuals for a linear regression model, this automatic collection takes place:

sw %>%
  filter(!is.na(height), !is.na(mass)) %>%
  transmute(name, height, mass, res = residuals(lm(mass ~ height)))

## Warning: Expression residuals(lm(mass ~ height)) not supported in Arrow;
## pulling data into R

## # A tibble: 59 x 4
##    name               height  mass   res
##    <chr>               <int> <dbl> <dbl>
##  1 Luke Skywalker        172    77 -18.8
##  2 C-3PO                 167    75 -17.7
##  3 R2-D2                  96    32 -16.4
##  4 Darth Vader           202   136  21.4
##  5 Leia Organa           150    49 -33.1
##  6 Owen Lars             178   120  20.4
##  7 Beru Whitesun Lars    165    75 -16.5
##  8 R5-D4                  97    32 -17.0
##  9 Biggs Darklighter     183    84 -18.7
## 10 Obi-Wan Kenobi        182    77 -25.1
## # i 49 more rows
…
## Error: Expression residuals(lm(mass ~ height)) not supported in Arrow
## Call collect() first to pull data into R.

Calling collect() in the middle of the pipeline fixes the issue:

sw2 %>%
  filter(!is.na(height), !is.na(mass)) %>%
  collect() %>%
  transmute(name, height, mass, res = residuals(lm(mass ~ height)))

## # A tibble: 59 x 4
##    name               height  mass   res
##    <chr>               <int> <dbl> <dbl>
##  1 Luke Skywalker        172    77 -18.8
##  2 C-3PO                 167    75 -17.7
##  3 R2-D2                  96    32 -16.4
##  4 Darth Vader           202   136  21.4
##  5 Leia Organa           150    49 -33.1
##  6 Owen Lars             178   120  20.4
##  7 Beru Whitesun Lars    165    75 -16.5
##  8 R5-D4                  97    32 -17.0
##  9 Biggs Darklighter     183    84 -18.7
## 10 Obi-Wan Kenobi        182    77 -25.1
## # i 49 more rows

Because window functions are not supported, computing an aggregation like mean() on a grouped table or within a rowwise operation like filter() is not supported:

sw %>%
  select(1:4) %>%
  filter(!is.na(hair_color)) %>%
  group_by(hair_color) %>%
  filter(height < mean(height, na.rm = TRUE))

## Warning: Expression height < mean(height, na.rm = TRUE) not supported in Arrow;
## pulling data into R

## # A tibble: 28 x 4
## # Groups:   hair_color [5]
##    name                  height  mass hair_color
##    <chr>                  <int> <dbl> <chr>     
##  1 Luke Skywalker           172    77 blond     
##  2 Leia Organa              150    49 brown     
##  3 Beru Whitesun Lars       165    75 brown     
##  4 Wedge Antilles           170    77 brown     
##  5 Yoda                      66    17 white     
##  6 Lobot                    175    79 none      
##  7 Ackbar                   180    83 none      
##  8 Wicket Systri Warrick     88    20 brown     
##  9 Nien Nunb                160    68 none      
## 10 Finis Valorum            170    NA blond     
## # i 18 more rows
This operation is sometimes referred to as a windowed aggregate and can be accomplished in Arrow by computing the aggregation separately, for example within a join operation:

sw %>%
  select(1:4) %>%
  filter(!is.na(hair_color)) %>%
  left_join(
    sw %>%
      group_by(hair_color) %>%
      summarize(mean_height = mean(height, na.rm = TRUE))
    ) %>%
  filter(height < mean_height) %>%
  select(!mean_height) %>%
  collect()

## # A tibble: 28 x 4
##    name                  height  mass hair_color
##    <chr>                  <int> <dbl> <chr>     
##  1 Luke Skywalker           172    77 blond     
##  2 Leia Organa              150    49 brown     
##  3 Beru Whitesun Lars       165    75 brown     
##  4 Wedge Antilles           170    77 brown     
##  5 Yoda                      66    17 white     
##  6 Lobot                    175    79 none      
##  7 Ackbar                   180    83 none      
##  8 Wicket Systri Warrick     88    20 brown     
##  9 Nien Nunb                160    68 none      
## 10 Finis Valorum            170    NA blond     
## # i 18 more rows

Alternatively, DuckDB supports Arrow natively, so you can pass the Table object to DuckDB without paying a performance penalty using the helper function to_duckdb() and pass the object back to Arrow with to_arrow():

sw %>%
  select(1:4) %>%
  filter(!is.na(hair_color)) %>%
  to_duckdb() %>%
  group_by(hair_color) %>%
  filter(height < mean(height, na.rm = TRUE)) %>%
  to_arrow() %>%
  # perform other arrow operations...
  collect()

## # A tibble: 28 x 4
##    name                    height  mass hair_color
##    <chr>                    <int> <dbl> <chr>     
##  1 "Luke Skywalker"           172    77 blond     
##  2 "Finis Valorum"            170    NA blond     
##  3 "Yoda"                      66    17 white     
##  4 "Leia Organa"              150    49 brown     
##  5 "Beru Whitesun Lars"       165    75 brown     
##  6 "Wedge Antilles"           170    77 brown     
##  7 "Wicket Systri Warrick"     88    20 brown     
##  8 "Cord\u00e9"               157    NA brown     
##  9 "Dorm\u00e9"               165    NA brown     
## 10 "Watto"                    137    NA black     
## # i 18 more rows
…
