Using cloud storage (S3, GCS) • Arrow R Package
…
There are 5 Parquet files here, one corresponding to each of the
“cut” categories in the diamonds data set. We can specify
the path to a specific file by calling bucket$path():

parquet_good <- bucket$path("diamonds/cut=Good/part-0.parquet")

We can use read_parquet() to read from this path
directly into R:

diamonds_good <- read_parquet(parquet_good)
diamonds_good

## # A tibble: 4,906 × 9
##    carat color clarity depth table price     x     y     z
##    <dbl> <ord> <ord>   <dbl> <dbl> <int> <dbl> <dbl> <dbl>
##  1  0.23 E     VS1      56.9    65   327  4.05  4.07  2.31
##  2  0.31 J     SI2      63.3    58   335  4.34  4.35  2.75
##  3  0.3  J     SI1      64      55   339  4.25  4.28  2.73
##  4  0.3  J     SI1      63.4    54   351  4.23  4.29  2.7 
##  5  0.3  J     SI1      63.8    56   351  4.23  4.26  2.71
##  6  0.3  I     SI2      63.3    56   351  4.26  4.3   2.71
##  7  0.23 F     VS1      58.2    59   402  4.06  4.08  2.37
##  8  0.23 E     VS1      64.1    59   402  3.83  3.85  2.46
##  9  0.31 H     SI1      64      54   402  4.29  4.31  2.75
## 10  0.26 D     VS2      65.2    56   403  3.99  4.02  2.61
## # … with 4,896 more rows
## # ℹ Use `print(n = ...)` to see more rows
…
