…
### ZSTD Decompression Support

The Arrow IPC reader included in the nanoarrow C library supports most features
of the Arrow IPC format; however, decompression support was missing which made
the library and its bindings unusable for some common use cases. In 0.7.0,
decompression support was added to the C library and R and Python bindings.

``` r
library(nanoarrow)

url <- "https://github.com/geoarrow/geoarrow-data/releases/download/v0.2.0/ns-water_water-point.arrows"
read_nanoarrow(url) |>
  tibble::as_tibble()
#> # A tibble: 44,690 × 8
#>    OBJECTID FEAT_CODE ZVALUE PT_CLASS NAMEID_1 NAME_1 HID             geometry$x
#>       <dbl> <chr>      <dbl>    <int> <chr>    <chr>  <chr>                <dbl>
#>  1     1055 WARK60      -0.5        4 <NA>     <NA>   252C345D59374D…    258976.
#>  2     1023 WARK60       0.6        4 <NA>     <NA>   1DAB1D800FB84E…    258341.
#>  3     1021 WARK60       0.5        4 <NA>     <NA>   838438F1BBE745…    258338.
#>  4      985 WARK60       0          4 <NA>     <NA>   0A4BE2AB03D845…    258527.
#>  5      994 WARK60       1.9        4 <NA>     <NA>   6ACD71128B6B49…    258499.
#>  6      995 WARK60       1.4        4 <NA>     <NA>   B10B26FA32FB44…    258502.
#>  7      997 WARK60       1.1        4 <NA>     <NA>   28E47E22D71549…    258498.
#>  8      993 WARK60       1.9        4 <NA>     <NA>   FC9A29123BEF4A…    258499.
#>  9     1003 WARK60       0.7        4 <NA>     <NA>   3C7CA3CD0E8840…    258528.
#> 10     1001 WARK60       0.7        4 <NA>     <NA>   A6F508B066DC4A…    258511.
#> # ℹ 44,680 more rows
#> # ℹ 2 more variables: geometry$y <dbl>, $z <dbl>
```
…
